{
  "type": "service_account",
  "project_id": "ktor-sample-4891e",
  "private_key_id": "462ec19762bf61ccea200bfdd6e31de9523367e1",
  "private_key": "-----BEGIN PRIVATE KEY-----\nMIIEvgIBADANBgkqhkiG9w0BAQEFAASCBKgwggSkAgEAAoIBAQDLN/iKYb0Qa79q\nWCKJPrnocxc57y1a0hPa2jh4lDusFdpF87zXoWZer82wf9jykXTbr1oVsd8UhNxY\npi9yU0cEK98AbyWYD1cU4fYLP5ZJzR+Abpl5Q9K+LNaVAwtPOeEMqIVOgIA49wip\nW0J0joGBfegiERxdB1tDMQCjxRWYkkTm2bsMenaWJaGmG03t7I8ZHreW0f81vLvO\nFeo4YrBjh+PzMF5uDIzs0Bb6pNj7DxGWND6KWIBYrRVoR/J2vFGHYkKgv3aytJ0v\nBn89SVZ4P8knmVuPUwJGTebA6lCw2FfrD6UvcHzJckhitNNYhEfV/Z7Jo98t1v0p\ny0RJviv3AgMBAAECggEAHIJLoc44Yddb0SVwIuTj29JZjc0aBcW291rp1TCmdmvS\nZUHeWjnQTLRJHNuyqcTyKeedsbF0ZEKHTwBxY45/RfyJmlv9YCm2w703cTiIcu4N\n30ykxzhWlktgByOYMJMkGUyC9xJb6qHtWyTsW8GqNWpeaHkSC5L+oJx9RHxfnTmX\nkehjZosRk83/EZZYeWTmTONHo/PtthQIFeL1ehdQqCUS0VEBV0qavDy11gRuuC7n\n+80NJ1gTwY4DeJAePD4nKqmX3gtggWBsLAOnTxmEApRBAL9+0rI+ummi2cYNdkmA\nf0awVDSEi/v7hMwUOZyyeyTs3/+vw6O6NAmfgYskkQKBgQD8X7m1KeF3Y7e3bnnj\nDnJFu40DVjdGcs2cQKywHlF2IDhPoXcp1HnFxaLXk4qz6/pPcg7SEPYCDDIlnHJB\n04VGND8zsJOcTgjz8LVE3ugBCil5vKChDTsluyzOevLMSvqUS7nhJhJHOkYc1L4P\nyr63It8QX/nBK6gMhXUXniCkSwKBgQDOI3GgOktAm0162hcV5koDXvkaWcme6/vQ\nz6a5iyYIxVna3Z4toW1MgOgGW4LuE8TzvW2DhKe9PKvNed9pyq/13KqW4kUtEdX/\nNtwiSk80PK8hju63cKIKaZg7puU3idBuyYONfh+J6dGUK+heJ1W9ekcnFbnweV7y\npzy80L3ThQKBgQCwfST6m0IwYszMe3bDoYuqVmFjzvwyyQAe4F+jfmBLcnbOwUT7\nPLq34uFhTq216zWOL15L606O2gaLpN+GRyyxjsIQHNDtgujh5xhtBFFMwNWGa7IN\nTpppZX8NGpAG6/xWjqp72Er6ArebW+9aTdeXbMx/wA6B10zbDM146b08BwKBgQCz\nsf4ZOPfkp/1QvNEnDAs1CROJvv+dhAWOL5YdZImRV8hOnKaJDJGlATJCaH+oXp9w\nAo92+KrosfzqL/Vr2X6uiuBCi5jWAxhTVFVtpu2IkeXxERJT4uG+xfIo/gIO+hoy\nmYQOUgXYSXWi/uufOBbsB64DClN+p673RIYT6ruvqQKBgCcp/lSjHoplm+j5DZOi\napZD3wr6wor6cJoOnubZmjzGaoTp/+Ua2McndA+b10ogXkbGATpQdzOaDl5yl3xn\nPXm3R/QyTm61e0HIOI5VxGmAvMm9ewX0bCrtVp5YaTXft8S9l5DF7h9u6fl2MyfS\n6OPPOhYlRY4C7D6ppRRrMfNz\n-----END PRIVATE KEY-----\n",
  "client_email": "firebase-adminsdk-ddsz5@ktor-sample-4891e.iam.gserviceaccount.com",
  "client_id": "115434006998443167450",
  "auth_uri": "https://accounts.google.com/o/oauth2/auth",
  "token_uri": "https://oauth2.googleapis.com/token",
  "auth_provider_x509_cert_url": "https://www.googleapis.com/oauth2/v1/certs",
  "client_x509_cert_url": "https://www.googleapis.com/robot/v1/metadata/x509/firebase-adminsdk-ddsz5%40ktor-sample-4891e.iam.gserviceaccount.com"
}
